{
  "BusinessData": [
    {"supplier" :"Sunshine Inc", "imp":120.87, "perf":8.25,   "size":36},
    {"supplier" :"XYZ AG",       "imp":180.87, "perf":83.82,  "size":12},
    {"supplier" :"AKE Corp",     "imp":320.43, "perf":-71.73, "size":32},
    {"supplier" :"Berlin AG",    "imp":410.87, "perf":18.25,  "size":18},
    {"supplier" :"California W4","imp":290.47, "perf":-4.25,  "size":50},
    {"supplier" :"WKF Limited",  "imp":338.29, "perf":63.82,  "size":23}
  ]
}